{
    "name": "Christmas",
    "colors": [
        [
            255,
            0,
            0
        ],
        [
            255,
            255,
            0
        ],
        [
            0,
            255,
            0
        ],
        [
            0,
            0,
            255
        ],
        [
            255,
            233,
            119
        ]
    ]
}